com/grpc/amazon/signIn/createProfileGrpc$createProfileImplBase.class
com/grpc/amazon/signIn/createProfileGrpc$createProfileBaseDescriptorSupplier.class
com/grpc/amazon/Amazon$emptyOrBuilder.class
com/grpc/amazon/signIn/CreateProfile$APIResponseOrBuilder.class
com/grpc/amazon/signIn/CreateProfile$APIResponse$Builder.class
com/grpc/amazon/amazonGrpc$amazonStub.class
com/grpc/amazon/Amazon$empty.class
com/grpc/amazon/amazonGrpc$MethodHandlers.class
com/grpc/amazon/signIn/CreateProfile$BusinessAccountOrBuilder.class
com/grpc/amazon/Amazon.class
com/grpc/amazon/signIn/createProfileGrpc$MethodHandlers.class
com/grpc/amazon/amazonGrpc$amazonFileDescriptorSupplier.class
com/grpc/amazon/signIn/createProfileGrpc$createProfileBlockingStub.class
com/grpc/amazon/amazonGrpc$amazonBlockingStub.class
com/grpc/amazon/Main.class
com/grpc/amazon/amazonGrpc$amazonFutureStub.class
com/grpc/amazon/signIn/CreateProfile$BusinessAccount$Builder.class
com/grpc/amazon/signIn/CreateProfile$UserAccount$Builder.class
com/grpc/amazon/signIn/createProfileGrpc$createProfileFileDescriptorSupplier.class
com/grpc/amazon/signIn/createProfileGrpc$createProfileMethodDescriptorSupplier.class
com/grpc/amazon/Amazon$APIResponse$Builder.class
com/grpc/amazon/Amazon$loginMessage.class
com/grpc/amazon/Amazon$APIResponse$1.class
com/grpc/amazon/signIn/createProfileGrpc$createProfileStub.class
com/grpc/amazon/signIn/CreateProfile$BusinessAccount$1.class
com/grpc/amazon/signIn/CreateProfile$BusinessAccount.class
com/grpc/amazon/Amazon$1.class
com/grpc/amazon/amazonGrpc.class
com/grpc/amazon/Amazon$empty$Builder.class
com/grpc/amazon/signIn/CreateProfile$1.class
com/grpc/amazon/Amazon$loginMessageOrBuilder.class
com/grpc/amazon/amazonGrpc$amazonBaseDescriptorSupplier.class
com/grpc/amazon/signIn/createProfileGrpc.class
com/grpc/amazon/signIn/CreateProfile.class
com/grpc/amazon/signIn/createProfileGrpc$createProfileFutureStub.class
com/grpc/amazon/signIn/CreateProfile$APIResponse$1.class
com/grpc/amazon/Amazon$loginMessage$1.class
com/grpc/amazon/signIn/CreateProfile$UserAccount.class
com/grpc/amazon/Amazon$APIResponseOrBuilder.class
com/grpc/amazon/signIn/CreateProfile$UserAccountOrBuilder.class
com/grpc/amazon/amazonGrpc$amazonImplBase.class
com/grpc/amazon/signIn/CreateProfile$APIResponse.class
com/grpc/amazon/Amazon$empty$1.class
com/grpc/amazon/Amazon$APIResponse.class
com/grpc/amazon/signIn/CreateProfile$UserAccount$1.class
com/grpc/amazon/amazonGrpc$amazonMethodDescriptorSupplier.class
com/grpc/amazon/Amazon$loginMessage$Builder.class
