/home/global/IdeaProjects/GRPCServer/src/main/java/com/stackroute/grpc/userGrpc.java
/home/global/IdeaProjects/GRPCServer/src/main/java/com/stackroute/grpc/User.java
/home/global/IdeaProjects/GRPCServer/src/main/java/com/gl/gRPCServer/Main.java
